module rest

go 1.20

require (
	github.com/BurntSushi/toml v1.2.1 // indirect
	github.com/asaskevich/govalidator v0.0.0-20230301143203-a9d515a09cc2 // indirect
	github.com/davecgh/go-spew v1.1.1 // indirect
	github.com/go-ozzo/ozzo-validation v3.6.0+incompatible // indirect
	github.com/gorilla/mux v1.8.0 // indirect
	github.com/jmoiron/sqlx v1.3.5 // indirect
	github.com/lib/pq v1.10.7 // indirect
	github.com/pmezard/go-difflib v1.0.0 // indirect
	github.com/sirupsen/logrus v1.9.0 // indirect
	github.com/stretchr/testify v1.8.2 // indirect
	golang.org/x/crypto v0.7.0 // indirect
	golang.org/x/sys v0.6.0 // indirect
	gopkg.in/yaml.v3 v3.0.1 // indirect
)
